<svg xmlns="http://www.w3.org/2000/svg" width="322.57" height="84.82">
    <defs>
        <style>
            .cls-2{fill:#fff}
        </style>
    </defs>
    <g id="Group_1372" data-name="Group 1372" transform="translate(-1468.548 -1211.364)" style="opacity:.3">
        <path id="Path_23030" data-name="Path 23030" class="cls-2" d="M1497.2 1211.364v31.415h-8.751V1232.1a21.289 21.289 0 0 1-6.687 1.211q-6.6 0-10.075-3.163t-3.478-9.133v-9.649h8.751v8.662q0 6.058 5.924 6.058a13.2 13.2 0 0 0 5.565-1.076v-13.644z" transform="translate(.343)"/>
        <path id="Path_23031" data-name="Path 23031" class="cls-2" d="M1524.725 1222.74h8.481v12.745l10.187-12.745h7.854v24.324h-8.526v-12.79l-10.1 12.79h-7.9z" transform="translate(-20.948 -4.285)"/>
        <path id="Path_23032" data-name="Path 23032" class="cls-2" d="M1580.415 1245.608a12.2 12.2 0 0 1 0-21.923 15.949 15.949 0 0 1 7.226-1.593 13.793 13.793 0 0 1 7.135 1.773 9.814 9.814 0 0 1 4.264 4.913l-6.6 3.367a5.234 5.234 0 0 0-4.847-3.276 5.1 5.1 0 0 0-3.792 1.526 5.75 5.75 0 0 0-1.5 4.218 5.894 5.894 0 0 0 1.5 4.286 5.063 5.063 0 0 0 3.792 1.548 5.233 5.233 0 0 0 4.847-3.277l6.6 3.366a9.81 9.81 0 0 1-4.264 4.913 13.783 13.783 0 0 1-7.135 1.773 15.749 15.749 0 0 1-7.226-1.614z" transform="translate(-39.323 -4.041)"/>
        <path id="Path_23033" data-name="Path 23033" class="cls-2" d="M1640.452 1229.517h-7.809v17.548h-8.482v-17.548h-7.854v-6.777h24.144z" transform="translate(-55.352 -4.285)"/>
        <path id="Path_23034" data-name="Path 23034" class="cls-2" d="M1702.662 1223.641a11.284 11.284 0 0 1 4.308 4.4 14.553 14.553 0 0 1 0 13.239 11.283 11.283 0 0 1-4.308 4.4 11.97 11.97 0 0 1-6.036 1.548 9.065 9.065 0 0 1-6.776-2.558v10.86h-8.527v-33.03h8.122v2.424q2.378-2.828 7.181-2.827a11.977 11.977 0 0 1 6.036 1.544zm-4.152 15.259a6.978 6.978 0 0 0 0-8.482 5.148 5.148 0 0 0-7.359 0 6.982 6.982 0 0 0 0 8.482 5.146 5.146 0 0 0 7.359 0z" transform="translate(-79.801 -4.041)"/>
        <path id="Path_23035" data-name="Path 23035" class="cls-2" d="M1748.765 1224.853q3.186 2.76 3.186 8.459v13.508h-7.943v-3.141q-1.841 3.545-7.18 3.545a11.247 11.247 0 0 1-4.892-.987 7.252 7.252 0 0 1-3.119-2.67 7.074 7.074 0 0 1-1.054-3.837 6.226 6.226 0 0 1 2.648-5.363q2.647-1.906 8.167-1.907h4.848q-.226-3.859-5.161-3.86a11.838 11.838 0 0 0-3.545.562 9.441 9.441 0 0 0-3.052 1.548l-2.872-5.789a15.9 15.9 0 0 1 4.915-2.087 23.363 23.363 0 0 1 5.811-.74q6.057-.001 9.243 2.759zm-6.955 16.268a4 4 0 0 0 1.616-2.11v-2.111h-3.681q-3.725 0-3.724 2.468a2.168 2.168 0 0 0 .853 1.795 3.664 3.664 0 0 0 2.333.673 4.724 4.724 0 0 0 2.603-.715z" transform="translate(-97.266 -4.041)"/>
        <path id="Path_23036" data-name="Path 23036" class="cls-2" d="M1797.094 1222.74v24.324h-8.481v-8.664a13.3 13.3 0 0 1-6.193 1.392q-5.116 0-7.674-2.289t-2.558-7.225v-7.54h8.527v6.956a3.224 3.224 0 0 0 3.68 3.77 8.947 8.947 0 0 0 4.219-.987v-9.739z" transform="translate(-113.972 -4.285)"/>
        <path id="Path_23037" data-name="Path 23037" class="cls-2" d="m1845.538 1222.74-10.5 25.312q-1.841 4.486-4.488 6.305a11.151 11.151 0 0 1-6.462 1.818 13.014 13.014 0 0 1-3.882-.607 9.348 9.348 0 0 1-3.164-1.592l2.962-5.969a5.143 5.143 0 0 0 1.728 1.055 5.75 5.75 0 0 0 2.042.382 3.7 3.7 0 0 0 2-.494 3.8 3.8 0 0 0 1.324-1.571l-10.412-24.638h8.751l5.969 14.855 6.014-14.855z" transform="translate(-130.702 -4.285)"/>
        <path id="Path_23038" data-name="Path 23038" class="cls-2" d="M1867.442 1222.74h8.482v9.021h8.751v-9.021h8.527v24.324h-8.527v-8.527h-8.751v8.527h-8.482z" transform="translate(-149.743 -4.285)"/>
        <path id="Path_23039" data-name="Path 23039" class="cls-2" d="M1924.145 1247.6a4.836 4.836 0 0 1 1.436 3.635 8.141 8.141 0 0 1-.269 2.065 21.329 21.329 0 0 1-1.211 3.1l-2.827 6.552h-5.341l2.109-7.314a4.4 4.4 0 0 1-1.952-1.728 5.042 5.042 0 0 1-.7-2.671 4.833 4.833 0 0 1 1.436-3.635 5.07 5.07 0 0 1 3.68-1.391 5.016 5.016 0 0 1 3.639 1.387z" transform="translate(-167.807 -13.099)"/>
        <path id="Path_23040" data-name="Path 23040" class="cls-2" d="M1497.55 1326.643v11.848h-7.9v-5.026h-15.3v5.026h-7.95v-11.848h.9a3.171 3.171 0 0 0 3.051-2.4 23.127 23.127 0 0 0 1.032-6.619l.314-8.482h22.484v17.5zm-18.983-3.141a6.6 6.6 0 0 1-1.346 3.141h8.437v-10.726h-6.507l-.09 2.333a39.762 39.762 0 0 1-.494 5.25z" transform="translate(31.134 -46.391)"/>
        <path id="Path_23041" data-name="Path 23041" class="cls-2" d="m1546.453 1309.141-10.5 25.311q-1.841 4.487-4.488 6.305a11.145 11.145 0 0 1-6.462 1.818 13.033 13.033 0 0 1-3.882-.606 9.352 9.352 0 0 1-3.164-1.593l2.962-5.969a5.147 5.147 0 0 0 1.728 1.055 5.753 5.753 0 0 0 2.042.381 3.692 3.692 0 0 0 2-.494 3.79 3.79 0 0 0 1.324-1.571l-10.411-24.638h8.751l5.969 14.854 6.014-14.854z" transform="translate(11.914 -46.391)"/>
        <path id="Path_23042" data-name="Path 23042" class="cls-2" d="M1588.732 1315.917h-11.893v17.547h-8.482v-24.324h20.375z" transform="translate(-7.177 -46.391)"/>
        <path id="Path_23043" data-name="Path 23043" class="cls-2" d="M1624.423 1311.253q3.186 2.76 3.187 8.459v13.508h-7.944v-3.141q-1.84 3.545-7.18 3.545a11.247 11.247 0 0 1-4.892-.987 7.245 7.245 0 0 1-3.119-2.67 7.069 7.069 0 0 1-1.054-3.837 6.226 6.226 0 0 1 2.648-5.363q2.647-1.906 8.167-1.907h4.848q-.225-3.859-5.161-3.859a11.836 11.836 0 0 0-3.545.561 9.462 9.462 0 0 0-3.052 1.548l-2.873-5.789a15.908 15.908 0 0 1 4.915-2.087 23.359 23.359 0 0 1 5.811-.74q6.059-.001 9.244 2.759zm-6.955 16.268a4 4 0 0 0 1.615-2.109v-2.112h-3.68q-3.725 0-3.725 2.468a2.17 2.17 0 0 0 .853 1.8 3.669 3.669 0 0 0 2.333.673 4.727 4.727 0 0 0 2.604-.72z" transform="translate(-20.363 -46.147)"/>
        <path id="Path_23044" data-name="Path 23044" class="cls-2" d="M1694.668 1309.141v24.324h-8.527v-17.547h-6.148l-.18 3.725a39.992 39.992 0 0 1-.943 7.854 9.954 9.954 0 0 1-2.513 4.824 6.538 6.538 0 0 1-4.8 1.728 19.542 19.542 0 0 1-4.129-.583l.359-6.956c.538.06.9.089 1.077.089a2.538 2.538 0 0 0 2.109-.9 5.268 5.268 0 0 0 .987-2.4 29.817 29.817 0 0 0 .359-4.016l.36-10.142zm13.15 9.693a7.355 7.355 0 0 1 2.557 6.014 7.635 7.635 0 0 1-2.939 6.35q-2.94 2.312-8.1 2.266h-13.194v-24.324h8.483v7.539h5.789q4.845.046 7.404 2.155zm-6.1 5.879a2.6 2.6 0 0 0-.808-2.109 3.9 3.9 0 0 0-2.424-.718h-3.859v5.7l3.859.045q3.228-.001 3.229-2.917z" transform="translate(-44.422 -46.391)"/>
        <path id="Path_23045" data-name="Path 23045" class="cls-2" d="m1763.6 1309.141-10.5 25.311q-1.84 4.487-4.488 6.305a11.144 11.144 0 0 1-6.462 1.818 13.037 13.037 0 0 1-3.882-.606 9.359 9.359 0 0 1-3.164-1.593l2.962-5.969a5.154 5.154 0 0 0 1.728 1.055 5.752 5.752 0 0 0 2.041.381 3.693 3.693 0 0 0 2-.494 3.792 3.792 0 0 0 1.324-1.571l-10.412-24.638h8.751l5.969 14.854 6.014-14.854z" transform="translate(-69.746 -46.391)"/>
        <path id="Path_23046" data-name="Path 23046" class="cls-2" d="M1805.813 1306.154a9.365 9.365 0 0 1 3.972 3.9 12.237 12.237 0 0 1 1.369 5.9 10.606 10.606 0 0 1-1.773 6.081 11.764 11.764 0 0 1-4.892 4.084 16.386 16.386 0 0 1-7.023 1.459q-6.418 0-10.232-3.994t-3.815-11.982q0-14.988 13.283-17.5l11.8-2.244 1.167 7.136-10.232 1.93a11.968 11.968 0 0 0-5.722 2.311 6.948 6.948 0 0 0-2.177 4.6 11.461 11.461 0 0 1 8.122-3.052 13.041 13.041 0 0 1 6.153 1.371zm-4.69 13.486a5.322 5.322 0 0 0 1.324-3.68 4.608 4.608 0 0 0-4.937-4.981 4.988 4.988 0 0 0-3.657 1.346 4.924 4.924 0 0 0-1.369 3.68 5.065 5.065 0 0 0 1.391 3.68 4.83 4.83 0 0 0 3.635 1.436 4.6 4.6 0 0 0 3.613-1.481z" transform="translate(-88.05 -39.882)"/>
        <path id="Path_23047" data-name="Path 23047" class="cls-2" d="M1851.437 1311.253q3.186 2.76 3.186 8.459v13.508h-7.943v-3.141q-1.841 3.545-7.18 3.545a11.246 11.246 0 0 1-4.892-.987 7.245 7.245 0 0 1-3.119-2.67 7.071 7.071 0 0 1-1.054-3.837 6.226 6.226 0 0 1 2.648-5.363q2.647-1.906 8.167-1.907h4.847q-.226-3.859-5.162-3.859a11.836 11.836 0 0 0-3.545.561 9.47 9.47 0 0 0-3.052 1.548l-2.872-5.789a15.905 15.905 0 0 1 4.915-2.087 23.357 23.357 0 0 1 5.811-.74q6.059-.001 9.245 2.759zm-6.956 16.268a4 4 0 0 0 1.616-2.109v-2.112h-3.681q-3.725 0-3.724 2.468a2.169 2.169 0 0 0 .853 1.8 3.668 3.668 0 0 0 2.333.673 4.727 4.727 0 0 0 2.604-.72z" transform="translate(-105.69 -46.147)"/>
        <path id="Path_23048" data-name="Path 23048" class="cls-2" d="M1901.235 1326.464a6 6 0 0 1-2.557 5.138q-2.558 1.862-7.539 1.862h-13.688v-24.324h13.059a13.811 13.811 0 0 1 7.383 1.661 5.232 5.232 0 0 1 2.625 4.667 5.452 5.452 0 0 1-.9 3.1 6.3 6.3 0 0 1-2.558 2.154 5.565 5.565 0 0 1 4.175 5.742zm-16.156-7.539h4.668q2.962 0 2.962-2.2 0-2.108-2.962-2.109h-4.668zm8.392 6.776q0-2.243-3.006-2.244h-5.386v4.488h5.3q3.093 0 3.093-2.245z" transform="translate(-123.401 -46.391)"/>
        <path id="Path_23049" data-name="Path 23049" class="cls-2" d="M1922.014 1328.214a4.442 4.442 0 0 1-1.436-3.343 4.283 4.283 0 0 1 1.436-3.321 5.27 5.27 0 0 1 3.68-1.3 5.187 5.187 0 0 1 3.657 1.3 4.314 4.314 0 0 1 1.414 3.321 4.443 4.443 0 0 1-1.436 3.343 5.055 5.055 0 0 1-3.635 1.369 5.114 5.114 0 0 1-3.68-1.369zm-1.391-30.449h10.142l-1.7 19.971h-6.777z" transform="translate(-139.647 -42.106)"/>
    </g>
</svg>
