<svg xmlns="http://www.w3.org/2000/svg" width="40" height="40" viewBox="0 0 40 40">
  <g id="Group_1382" data-name="Group 1382" transform="translate(-1620 -4487)">
    <rect id="Rectangle_594" data-name="Rectangle 594" width="40" height="40" transform="translate(1620 4487)" fill="#2f374c" opacity="0.1"/>
    <g id="Group_1379" data-name="Group 1379">
      <path id="Union_49" data-name="Union 49" d="M5.656,12.8V7.142H0V5.655H5.656V0H7.142V5.655H12.8V7.142H7.142V12.8H5.656Z" transform="translate(1634 4500.601)" fill="#2f374c"/>
    </g>
  </g>
</svg>
